<?xml version="1.0" encoding="utf-8"?>
<!-- Generator: Adobe Illustrator 20.0.0, SVG Export Plug-In . SVG Version: 6.00 Build 0)  -->
<svg version="1.1" id="Capa_1" xmlns="http://www.w3.org/2000/svg" xmlns:xlink="http://www.w3.org/1999/xlink" x="0px" y="0px"
	 viewBox="0 0 297.2 198.5" style="enable-background:new 0 0 297.2 198.5;" xml:space="preserve">
<style type="text/css">
	.st0{fill:#FFFFFF;}
</style>
<path class="st0" d="M262.8,73.8l-61-61c-7-7-18.4-7-25.4,0l0,0c-7,7-7,18.4,0,25.4L219.1,81H18C8.1,81,0,89,0,99l0,0
	c0,9.9,8.1,18,18,18h201.6l-43.3,43.3c-7,7-7,18.4,0,25.4l0,0c7,7,18.4,7,25.4,0l73.8-73.8c7-7,7-18.4,0-25.4L262.8,73.8z"/>
</svg>
