﻿ 2023-08-15 13:22:06,187 [P1416/D2/T1] INFO  Umbraco.Core.CoreBootManager - Umbraco 7.4.3 application starting on JONAS
 2023-08-15 13:22:06,242 [P1416/D2/T1] INFO  Umbraco.Core.PluginManager - Determining hash of code files on disk
 2023-08-15 13:22:06,257 [P1416/D2/T1] INFO  Umbraco.Core.PluginManager - Hash determined (took 14ms)
 2023-08-15 13:22:06,308 [P1416/D2/T1] INFO  Umbraco.Core.PluginManager - Starting resolution types of umbraco.interfaces.IApplicationStartupHandler
 2023-08-15 13:22:06,504 [P1416/D2/T1] INFO  Umbraco.Core.PluginManager - Completed resolution of types of umbraco.interfaces.IApplicationStartupHandler, found 0 (took 196ms)
 2023-08-15 13:22:06,520 [P1416/D2/T1] INFO  Umbraco.Core.PluginManager - Starting resolution types of Umbraco.Core.PropertyEditors.IPropertyEditorValueConverter
 2023-08-15 13:22:06,528 [P1416/D2/T1] INFO  Umbraco.Core.PluginManager - Completed resolution of types of Umbraco.Core.PropertyEditors.IPropertyEditorValueConverter, found 0 (took 8ms)
 2023-08-15 13:22:06,528 [P1416/D2/T1] INFO  Umbraco.Core.PluginManager - Starting resolution types of Umbraco.Core.PropertyEditors.IPropertyValueConverter
 2023-08-15 13:22:06,548 [P1416/D2/T1] INFO  Umbraco.Core.PluginManager - Completed resolution of types of Umbraco.Core.PropertyEditors.IPropertyValueConverter, found 0 (took 19ms)
 2023-08-15 13:22:06,571 [P1416/D2/T1] INFO  Umbraco.Core.PluginManager - Starting resolution types of Umbraco.Web.Mvc.SurfaceController
 2023-08-15 13:22:06,581 [P1416/D2/T1] INFO  Umbraco.Core.PluginManager - Completed resolution of types of Umbraco.Web.Mvc.SurfaceController, found 0 (took 9ms)
 2023-08-15 13:22:06,581 [P1416/D2/T1] INFO  Umbraco.Core.PluginManager - Starting resolution types of Umbraco.Web.WebApi.UmbracoApiController
 2023-08-15 13:22:06,603 [P1416/D2/T1] INFO  Umbraco.Core.PluginManager - Completed resolution of types of Umbraco.Web.WebApi.UmbracoApiController, found 0 (took 22ms)
 2023-08-15 13:22:06,631 [P1416/D2/T1] INFO  Umbraco.Core.PluginManager - Starting resolution types of Umbraco.Core.Media.IThumbnailProvider
 2023-08-15 13:22:06,634 [P1416/D2/T1] INFO  Umbraco.Core.PluginManager - Completed resolution of types of Umbraco.Core.Media.IThumbnailProvider, found 0 (took 4ms)
 2023-08-15 13:22:06,636 [P1416/D2/T1] INFO  Umbraco.Core.PluginManager - Starting resolution types of Umbraco.Core.Media.IImageUrlProvider
 2023-08-15 13:22:06,652 [P1416/D2/T1] INFO  Umbraco.Core.PluginManager - Completed resolution of types of Umbraco.Core.Media.IImageUrlProvider, found 0 (took 16ms)
 2023-08-15 13:22:07,741 [P1416/D2/T1] INFO  Umbraco.Core.DatabaseContext - CanConnect = True
 2023-08-15 13:22:08,074 [P1416/D2/T1] INFO  Umbraco.Core.DatabaseContext - CanConnect = True
 2023-08-15 13:22:08,086 [P1416/D2/T1] INFO  Umbraco.Core.DatabaseContext - CanConnect = True
 2023-08-15 13:22:08,157 [P1416/D2/T1] WARN  Umbraco.Core.Sync.DatabaseServerMessenger - No last synced Id found, this generally means this is a new server/install. The server will build its caches and indexes, and then adjust its last synced Id to the latest found in the database and maintain cache updates based on that Id.
 2023-08-15 13:22:08,483 [P1416/D2/T1] INFO  umbraco.content - Load Xml from file...
 2023-08-15 13:22:08,512 [P1416/D2/T1] INFO  umbraco.content - Loaded Xml from file.
 2023-08-15 13:22:08,519 [P1416/D2/T1] INFO  umbraco.content - Loading content from database...
 2023-08-15 13:22:11,041 [P1416/D2/T1] INFO  Umbraco.Core.PluginManager - Starting resolution types of Umbraco.Core.PropertyEditors.IParameterEditor
 2023-08-15 13:22:11,066 [P1416/D2/T1] INFO  Umbraco.Core.PluginManager - Completed resolution of types of Umbraco.Core.PropertyEditors.IParameterEditor, found 0 (took 24ms)
 2023-08-15 13:22:11,989 [P1416/D2/T11] INFO  Umbraco.Core.PluginManager - Starting resolution types of Umbraco.Core.Persistence.Mappers.BaseMapper
 2023-08-15 13:22:11,994 [P1416/D2/T11] INFO  Umbraco.Core.PluginManager - Completed resolution of types of Umbraco.Core.Persistence.Mappers.BaseMapper, found 0 (took 6ms)
 2023-08-15 13:22:13,545 [P1416/D2/T1] INFO  Umbraco.Web.Cache.CacheRefresherEventHandler - Initializing Umbraco internal event handlers for cache refreshing
 2023-08-15 13:22:13,558 [P1416/D2/T1] INFO  Umbraco.Web.Search.ExamineEvents - Initializing Examine and binding to business logic events
 2023-08-15 13:22:13,559 [P1416/D2/T1] INFO  Umbraco.Web.Search.ExamineEvents - Adding examine event handlers for index providers: 3
 2023-08-15 13:22:13,622 [P1416/D2/T1] INFO  Umbraco.Core.CoreBootManager - Umbraco application startup complete (took 7507ms)
 2023-08-15 13:22:13,729 [P1416/D2/T5] INFO  umbraco.content - Save Xml to file...
 2023-08-15 13:22:13,738 [P1416/D2/T14] INFO  umbraco.content - Saved Xml to file.
 2023-08-15 13:22:14,574 [P1416/D2/T20] INFO  Umbraco.Core.Sync.ApplicationUrlHelper - ApplicationUrl: https://localhost/umbraco (UmbracoModule request)
 2023-08-15 13:22:22,085 [P1416/D2/T20] WARN  Umbraco.Core.PropertyEditors.LegacyPropertyEditorIdToAliasConverter - A legacy GUID id was generated for property editor Imulus.Archetype. This occurs when the legacy APIs are used and done to attempt to maintain backwards compatibility. Consider upgrading all code to use the new Services APIs instead to avoid any potential issues.
 2023-08-15 13:22:22,092 [P1416/D2/T20] INFO  Umbraco.Core.PluginManager - Starting resolution types of umbraco.interfaces.IDataType
 2023-08-15 13:22:22,116 [P1416/D2/T20] INFO  Umbraco.Core.PluginManager - Completed resolution of types of umbraco.interfaces.IDataType, found 0 (took 24ms)
 2023-08-15 13:22:22,124 [P1416/D2/T20] INFO  Umbraco.Core.PluginManager - Starting resolution types of umbraco.interfaces.ITree
 2023-08-15 13:22:22,141 [P1416/D2/T20] INFO  Umbraco.Core.PluginManager - Completed resolution of types of umbraco.interfaces.ITree, found 0 (took 15ms)
 2023-08-15 13:22:22,155 [P1416/D2/T20] INFO  Umbraco.Core.PluginManager - Starting resolution types of Umbraco.Web.Trees.TreeController
 2023-08-15 13:22:22,166 [P1416/D2/T20] INFO  Umbraco.Core.PluginManager - Completed resolution of types of Umbraco.Web.Trees.TreeController, found 0 (took 10ms)
 2023-08-15 13:22:22,168 [P1416/D2/T20] INFO  Umbraco.Core.PluginManager - Starting resolution types of umbraco.interfaces.ITree
 2023-08-15 13:22:22,187 [P1416/D2/T20] INFO  Umbraco.Core.PluginManager - Completed resolution of types of umbraco.interfaces.ITree, found 0 (took 19ms)
 2023-08-15 13:22:22,225 [P1416/D2/T20] INFO  Umbraco.Core.PluginManager - Starting resolution types of umbraco.interfaces.IApplication
 2023-08-15 13:22:22,236 [P1416/D2/T20] INFO  Umbraco.Core.PluginManager - Completed resolution of types of umbraco.interfaces.IApplication, found 0 (took 11ms)
 2023-08-15 13:22:22,589 [P1416/D2/T20] WARN  Umbraco.Core.PropertyEditors.LegacyPropertyEditorIdToAliasConverter - A legacy GUID id was generated for property editor RJP.MultiUrlPicker. This occurs when the legacy APIs are used and done to attempt to maintain backwards compatibility. Consider upgrading all code to use the new Services APIs instead to avoid any potential issues.
 2023-08-15 13:23:19,192 [P1416/D2/T29] ERROR Umbraco.Web.Scheduling.KeepAlive - Failed (at "https://localhost/umbraco").
System.Net.Http.HttpRequestException: Der opstod en fejl under afsendelse af anmodningen. ---> System.Net.WebException: Der kunne ikke oprettes forbindelse til fjernserveren ---> System.Net.Sockets.SocketException: Der kunne ikke oprettes forbindelse, fordi destinationscomputeren aktivt nægtede det 127.0.0.1:443
   ved System.Net.Sockets.Socket.InternalEndConnect(IAsyncResult asyncResult)
   ved System.Net.Sockets.Socket.EndConnect(IAsyncResult asyncResult)
   ved System.Net.ServicePoint.ConnectSocketInternal(Boolean connectFailure, Socket s4, Socket s6, Socket& socket, IPAddress& address, ConnectSocketState state, IAsyncResult asyncResult, Exception& exception)
   --- Slut på staksporing af indre undtagelser ---
   ved System.Net.HttpWebRequest.EndGetResponse(IAsyncResult asyncResult)
   ved System.Net.Http.HttpClientHandler.GetResponseCallback(IAsyncResult ar)
   --- Slut på staksporing af indre undtagelser ---
   ved System.Runtime.ExceptionServices.ExceptionDispatchInfo.Throw()
   ved System.Runtime.CompilerServices.TaskAwaiter.HandleNonSuccessAndDebuggerNotification(Task task)
   ved Umbraco.Web.Scheduling.KeepAlive.<PerformRunAsync>d__4.MoveNext()
 2023-08-15 13:23:24,469 [P1416/D2/T13] ERROR Umbraco.Core.UmbracoApplicationBase - An unhandled exception occurred
System.InvalidOperationException: The requested resource can only be accessed via SSL.
   at System.Web.Mvc.RequireHttpsAttribute.HandleNonHttpsRequest(AuthorizationContext filterContext)
   at System.Web.Mvc.RequireHttpsAttribute.OnAuthorization(AuthorizationContext filterContext)
   at System.Web.Mvc.ControllerActionInvoker.InvokeAuthorizationFilters(ControllerContext controllerContext, IList`1 filters, ActionDescriptor actionDescriptor)
   at System.Web.Mvc.Async.AsyncControllerActionInvoker.<>c__DisplayClass21.<BeginInvokeAction>b__19(AsyncCallback asyncCallback, Object asyncState)
   at System.Web.Mvc.Async.AsyncResultWrapper.WrappedAsyncResultBase`1.Begin(AsyncCallback callback, Object state, Int32 timeout)
   at System.Web.Mvc.Async.AsyncControllerActionInvoker.BeginInvokeAction(ControllerContext controllerContext, String actionName, AsyncCallback callback, Object state)
   at System.Web.Mvc.Controller.<BeginExecuteCore>b__1c(AsyncCallback asyncCallback, Object asyncState, ExecuteCoreState innerState)
   at System.Web.Mvc.Async.AsyncResultWrapper.WrappedAsyncVoid`1.CallBeginDelegate(AsyncCallback callback, Object callbackState)
   at System.Web.Mvc.Async.AsyncResultWrapper.WrappedAsyncResultBase`1.Begin(AsyncCallback callback, Object state, Int32 timeout)
   at System.Web.Mvc.Controller.BeginExecuteCore(AsyncCallback callback, Object state)
   at System.Web.Mvc.Async.AsyncResultWrapper.WrappedAsyncResultBase`1.Begin(AsyncCallback callback, Object state, Int32 timeout)
   at System.Web.Mvc.Controller.BeginExecute(RequestContext requestContext, AsyncCallback callback, Object state)
   at System.Web.Mvc.MvcHandler.<BeginProcessRequest>b__4(AsyncCallback asyncCallback, Object asyncState, ProcessRequestState innerState)
   at System.Web.Mvc.Async.AsyncResultWrapper.WrappedAsyncVoid`1.CallBeginDelegate(AsyncCallback callback, Object callbackState)
   at System.Web.Mvc.Async.AsyncResultWrapper.WrappedAsyncResultBase`1.Begin(AsyncCallback callback, Object state, Int32 timeout)
   at System.Web.Mvc.MvcHandler.BeginProcessRequest(HttpContextBase httpContext, AsyncCallback callback, Object state)
   at System.Web.HttpApplication.CallHandlerExecutionStep.System.Web.HttpApplication.IExecutionStep.Execute()
   at System.Web.HttpApplication.ExecuteStepImpl(IExecutionStep step)
   at System.Web.HttpApplication.ExecuteStep(IExecutionStep step, Boolean& completedSynchronously)
 2023-08-15 13:24:28,534 [P1416/D2/T21] INFO  Umbraco.Web.Scheduling.BackgroundTaskRunner - [KeepAlive] Terminating
 2023-08-15 13:24:28,534 [P1416/D2/T21] INFO  Umbraco.Web.Scheduling.BackgroundTaskRunner - [KeepAlive] Waiting for tasks to complete
 2023-08-15 13:24:28,535 [P1416/D2/T21] INFO  Umbraco.Web.Scheduling.BackgroundTaskRunner - [ScheduledPublishing] Terminating
 2023-08-15 13:24:28,535 [P1416/D2/T21] INFO  Umbraco.Web.Scheduling.BackgroundTaskRunner - [ScheduledPublishing] Waiting for tasks to complete
 2023-08-15 13:24:28,536 [P1416/D2/T12] INFO  Umbraco.Web.Scheduling.BackgroundTaskRunner - [KeepAlive] Tasks completed, terminated
 2023-08-15 13:24:28,537 [P1416/D2/T13] INFO  Umbraco.Web.Scheduling.BackgroundTaskRunner - [ScheduledPublishing] Tasks completed, terminated
 2023-08-15 13:24:28,537 [P1416/D2/T21] INFO  Umbraco.Web.Scheduling.BackgroundTaskRunner - [LogScrubber] Terminating
 2023-08-15 13:24:28,537 [P1416/D2/T21] INFO  Umbraco.Web.Scheduling.BackgroundTaskRunner - [LogScrubber] Waiting for tasks to complete
 2023-08-15 13:24:28,538 [P1416/D2/T27] INFO  Umbraco.Web.Scheduling.BackgroundTaskRunner - [LogScrubber] Tasks completed, terminated
 2023-08-15 13:24:28,543 [P1416/D2/T21] INFO  Umbraco.Web.Scheduling.BackgroundTaskRunner - [ScheduledTasks] Terminating
 2023-08-15 13:24:28,543 [P1416/D2/T21] INFO  Umbraco.Web.Scheduling.BackgroundTaskRunner - [ScheduledTasks] Waiting for tasks to complete
 2023-08-15 13:24:28,543 [P1416/D2/T21] INFO  Umbraco.Web.Scheduling.BackgroundTaskRunner - [Umbraco.Web.Scheduling.IBackgroundTask] Terminating
 2023-08-15 13:24:28,543 [P1416/D2/T21] INFO  Umbraco.Web.Scheduling.BackgroundTaskRunner - [Umbraco.Web.Scheduling.IBackgroundTask] Waiting for tasks to complete
 2023-08-15 13:24:28,543 [P1416/D2/T17] INFO  Umbraco.Web.Scheduling.BackgroundTaskRunner - [ScheduledTasks] Tasks completed, terminated
 2023-08-15 13:24:28,543 [P1416/D2/T17] INFO  Umbraco.Web.Scheduling.BackgroundTaskRunner - [Umbraco.Web.Scheduling.IBackgroundTask] Tasks completed, terminated
 2023-08-15 13:24:58,668 [P1416/D2/T17] INFO  Umbraco.Core.UmbracoApplicationBase - Application shutdown. Details: BinDirChangeOrDirectoryRename

_shutDownMessage=Ændringsbeskeder for kritiske mapper.
bin dir change or directory rename
HostingEnvironment initiated shutdown
Ændringsbeskeder for kritiske mapper.
bin dir change or directory rename
HostingEnvironment forårsagede nedlukning

_shutDownStack=   ved System.Environment.GetStackTrace(Exception e, Boolean needFileInfo)
   ved System.Environment.get_StackTrace()
   ved System.Web.Hosting.HostingEnvironment.InitiateShutdownInternal()
   ved System.Web.Hosting.HostingEnvironment.InitiateShutdownWithoutDemand()
   ved System.Web.HttpRuntime.ShutdownAppDomain(String stackTrace)
   ved System.Web.HttpRuntime.OnCriticalDirectoryChange(Object sender, FileChangeEvent e)
   ved System.Web.FileChangesMonitor.OnCriticaldirChange(Object sender, FileChangeEvent e)
   ved System.Web.DirectoryMonitor.FireNotifications()
   ved System.Web.Util.WorkItem.CallCallbackWithAssert(WorkItemCallback callback)
   ved System.Web.Util.WorkItem.OnQueueUserWorkItemCompletion(Object state)
   ved System.Threading.ExecutionContext.RunInternal(ExecutionContext executionContext, ContextCallback callback, Object state, Boolean preserveSyncCtx)
   ved System.Threading.ExecutionContext.Run(ExecutionContext executionContext, ContextCallback callback, Object state, Boolean preserveSyncCtx)
   ved System.Threading.QueueUserWorkItemCallback.System.Threading.IThreadPoolWorkItem.ExecuteWorkItem()
   ved System.Threading.ThreadPoolWorkQueue.Dispatch()
 2023-08-15 13:35:04,009 [P1416/D3/T1] INFO  Umbraco.Core.CoreBootManager - Umbraco 7.4.3 application starting on JONAS
 2023-08-15 13:35:04,056 [P1416/D3/T1] INFO  Umbraco.Core.PluginManager - Determining hash of code files on disk
 2023-08-15 13:35:04,067 [P1416/D3/T1] INFO  Umbraco.Core.PluginManager - Hash determined (took 10ms)
 2023-08-15 13:35:04,138 [P1416/D3/T1] INFO  Umbraco.Core.PluginManager - Starting resolution types of umbraco.interfaces.IApplicationStartupHandler
 2023-08-15 13:35:04,410 [P1416/D3/T1] INFO  Umbraco.Core.PluginManager - Completed resolution of types of umbraco.interfaces.IApplicationStartupHandler, found 0 (took 271ms)
 2023-08-15 13:35:04,435 [P1416/D3/T1] INFO  Umbraco.Core.PluginManager - Starting resolution types of Umbraco.Core.PropertyEditors.IPropertyEditorValueConverter
 2023-08-15 13:35:04,441 [P1416/D3/T1] INFO  Umbraco.Core.PluginManager - Completed resolution of types of Umbraco.Core.PropertyEditors.IPropertyEditorValueConverter, found 0 (took 6ms)
 2023-08-15 13:35:04,442 [P1416/D3/T1] INFO  Umbraco.Core.PluginManager - Starting resolution types of Umbraco.Core.PropertyEditors.IPropertyValueConverter
 2023-08-15 13:35:04,455 [P1416/D3/T1] INFO  Umbraco.Core.PluginManager - Completed resolution of types of Umbraco.Core.PropertyEditors.IPropertyValueConverter, found 0 (took 12ms)
 2023-08-15 13:35:04,470 [P1416/D3/T1] INFO  Umbraco.Core.PluginManager - Starting resolution types of Umbraco.Web.Mvc.SurfaceController
 2023-08-15 13:35:04,477 [P1416/D3/T1] INFO  Umbraco.Core.PluginManager - Completed resolution of types of Umbraco.Web.Mvc.SurfaceController, found 0 (took 7ms)
 2023-08-15 13:35:04,477 [P1416/D3/T1] INFO  Umbraco.Core.PluginManager - Starting resolution types of Umbraco.Web.WebApi.UmbracoApiController
 2023-08-15 13:35:04,488 [P1416/D3/T1] INFO  Umbraco.Core.PluginManager - Completed resolution of types of Umbraco.Web.WebApi.UmbracoApiController, found 0 (took 11ms)
 2023-08-15 13:35:04,530 [P1416/D3/T1] INFO  Umbraco.Core.PluginManager - Starting resolution types of Umbraco.Core.Media.IThumbnailProvider
 2023-08-15 13:35:04,535 [P1416/D3/T1] INFO  Umbraco.Core.PluginManager - Completed resolution of types of Umbraco.Core.Media.IThumbnailProvider, found 0 (took 6ms)
 2023-08-15 13:35:04,536 [P1416/D3/T1] INFO  Umbraco.Core.PluginManager - Starting resolution types of Umbraco.Core.Media.IImageUrlProvider
 2023-08-15 13:35:04,546 [P1416/D3/T1] INFO  Umbraco.Core.PluginManager - Completed resolution of types of Umbraco.Core.Media.IImageUrlProvider, found 0 (took 11ms)
 2023-08-15 13:35:05,950 [P1416/D3/T1] INFO  Umbraco.Core.DatabaseContext - CanConnect = True
 2023-08-15 13:35:06,268 [P1416/D3/T1] INFO  Umbraco.Core.DatabaseContext - CanConnect = True
 2023-08-15 13:35:06,271 [P1416/D3/T1] INFO  Umbraco.Core.DatabaseContext - CanConnect = True
 2023-08-15 13:35:06,407 [P1416/D3/T1] INFO  Umbraco.Web.Cache.CacheRefresherEventHandler - Initializing Umbraco internal event handlers for cache refreshing
 2023-08-15 13:35:06,430 [P1416/D3/T1] INFO  Umbraco.Web.Search.ExamineEvents - Initializing Examine and binding to business logic events
 2023-08-15 13:35:06,566 [P1416/D3/T1] INFO  Umbraco.Web.Search.ExamineEvents - Adding examine event handlers for index providers: 3
 2023-08-15 13:35:06,657 [P1416/D3/T1] INFO  Umbraco.Core.CoreBootManager - Umbraco application startup complete (took 2757ms)
 2023-08-15 13:35:07,449 [P1416/D3/T95] INFO  Umbraco.Core.Sync.ApplicationUrlHelper - ApplicationUrl: https://localhost/umbraco (UmbracoModule request)
 2023-08-15 13:35:07,736 [P1416/D3/T95] INFO  umbraco.content - Load Xml from file...
 2023-08-15 13:35:07,742 [P1416/D3/T95] INFO  umbraco.content - Loaded Xml from file.
 2023-08-15 13:35:08,719 [P1416/D3/T95] INFO  Umbraco.Core.PluginManager - Starting resolution types of Umbraco.Core.PropertyEditors.IParameterEditor
 2023-08-15 13:35:08,760 [P1416/D3/T95] INFO  Umbraco.Core.PluginManager - Completed resolution of types of Umbraco.Core.PropertyEditors.IParameterEditor, found 0 (took 41ms)
 2023-08-15 13:35:09,217 [P1416/D3/T95] INFO  Umbraco.Core.PluginManager - Starting resolution types of Umbraco.Core.Persistence.Mappers.BaseMapper
 2023-08-15 13:35:09,227 [P1416/D3/T95] INFO  Umbraco.Core.PluginManager - Completed resolution of types of Umbraco.Core.Persistence.Mappers.BaseMapper, found 0 (took 10ms)
 2023-08-15 13:35:18,953 [P1416/D3/T95] INFO  Umbraco.Core.PluginManager - Starting resolution types of umbraco.interfaces.IDataType
 2023-08-15 13:35:18,993 [P1416/D3/T95] INFO  Umbraco.Core.PluginManager - Completed resolution of types of umbraco.interfaces.IDataType, found 0 (took 40ms)
 2023-08-15 13:35:19,000 [P1416/D3/T95] INFO  Umbraco.Core.PluginManager - Starting resolution types of umbraco.interfaces.ITree
 2023-08-15 13:35:19,015 [P1416/D3/T95] INFO  Umbraco.Core.PluginManager - Completed resolution of types of umbraco.interfaces.ITree, found 0 (took 15ms)
 2023-08-15 13:35:19,040 [P1416/D3/T95] INFO  Umbraco.Core.PluginManager - Starting resolution types of Umbraco.Web.Trees.TreeController
 2023-08-15 13:35:19,047 [P1416/D3/T95] INFO  Umbraco.Core.PluginManager - Completed resolution of types of Umbraco.Web.Trees.TreeController, found 0 (took 7ms)
 2023-08-15 13:35:19,050 [P1416/D3/T95] INFO  Umbraco.Core.PluginManager - Starting resolution types of umbraco.interfaces.ITree
 2023-08-15 13:35:19,064 [P1416/D3/T95] INFO  Umbraco.Core.PluginManager - Completed resolution of types of umbraco.interfaces.ITree, found 0 (took 15ms)
 2023-08-15 13:35:19,117 [P1416/D3/T95] INFO  Umbraco.Core.PluginManager - Starting resolution types of umbraco.interfaces.IApplication
 2023-08-15 13:35:19,129 [P1416/D3/T95] INFO  Umbraco.Core.PluginManager - Completed resolution of types of umbraco.interfaces.IApplication, found 0 (took 12ms)
 2023-08-15 13:35:19,280 [P1416/D3/T95] WARN  Umbraco.Core.PropertyEditors.LegacyPropertyEditorIdToAliasConverter - A legacy GUID id was generated for property editor Imulus.Archetype. This occurs when the legacy APIs are used and done to attempt to maintain backwards compatibility. Consider upgrading all code to use the new Services APIs instead to avoid any potential issues.
 2023-08-15 13:36:11,841 [P1416/D3/T34] ERROR Umbraco.Web.Scheduling.KeepAlive - Failed (at "https://localhost/umbraco").
System.Net.Http.HttpRequestException: Der opstod en fejl under afsendelse af anmodningen. ---> System.Net.WebException: Der kunne ikke oprettes forbindelse til fjernserveren ---> System.Net.Sockets.SocketException: Der kunne ikke oprettes forbindelse, fordi destinationscomputeren aktivt nægtede det 127.0.0.1:443
   ved System.Net.Sockets.Socket.InternalEndConnect(IAsyncResult asyncResult)
   ved System.Net.Sockets.Socket.EndConnect(IAsyncResult asyncResult)
   ved System.Net.ServicePoint.ConnectSocketInternal(Boolean connectFailure, Socket s4, Socket s6, Socket& socket, IPAddress& address, ConnectSocketState state, IAsyncResult asyncResult, Exception& exception)
   --- Slut på staksporing af indre undtagelser ---
   ved System.Net.HttpWebRequest.EndGetResponse(IAsyncResult asyncResult)
   ved System.Net.Http.HttpClientHandler.GetResponseCallback(IAsyncResult ar)
   --- Slut på staksporing af indre undtagelser ---
   ved System.Runtime.ExceptionServices.ExceptionDispatchInfo.Throw()
   ved System.Runtime.CompilerServices.TaskAwaiter.HandleNonSuccessAndDebuggerNotification(Task task)
   ved Umbraco.Web.Scheduling.KeepAlive.<PerformRunAsync>d__4.MoveNext()
 2023-08-15 13:37:12,051 [P1416/D3/T117] ERROR Umbraco.Web.Scheduling.ScheduledPublishing - Failed (at "https://localhost/umbraco").
System.Net.Http.HttpRequestException: Der opstod en fejl under afsendelse af anmodningen. ---> System.Net.WebException: Der kunne ikke oprettes forbindelse til fjernserveren ---> System.Net.Sockets.SocketException: Der kunne ikke oprettes forbindelse, fordi destinationscomputeren aktivt nægtede det 127.0.0.1:443
   ved System.Net.Sockets.Socket.InternalEndConnect(IAsyncResult asyncResult)
   ved System.Net.Sockets.Socket.EndConnect(IAsyncResult asyncResult)
   ved System.Net.ServicePoint.ConnectSocketInternal(Boolean connectFailure, Socket s4, Socket s6, Socket& socket, IPAddress& address, ConnectSocketState state, IAsyncResult asyncResult, Exception& exception)
   --- Slut på staksporing af indre undtagelser ---
   ved System.Net.HttpWebRequest.EndGetRequestStream(IAsyncResult asyncResult, TransportContext& context)
   ved System.Net.Http.HttpClientHandler.GetRequestStreamCallback(IAsyncResult ar)
   --- Slut på staksporing af indre undtagelser ---
   ved System.Runtime.ExceptionServices.ExceptionDispatchInfo.Throw()
   ved System.Runtime.CompilerServices.TaskAwaiter.HandleNonSuccessAndDebuggerNotification(Task task)
   ved Umbraco.Web.Scheduling.ScheduledPublishing.<PerformRunAsync>d__5.MoveNext()
 2023-08-15 13:38:16,142 [P1416/D3/T116] ERROR Umbraco.Web.Scheduling.ScheduledPublishing - Failed (at "https://localhost/umbraco").
System.Net.Http.HttpRequestException: Der opstod en fejl under afsendelse af anmodningen. ---> System.Net.WebException: Der kunne ikke oprettes forbindelse til fjernserveren ---> System.Net.Sockets.SocketException: Der kunne ikke oprettes forbindelse, fordi destinationscomputeren aktivt nægtede det 127.0.0.1:443
   ved System.Net.Sockets.Socket.InternalEndConnect(IAsyncResult asyncResult)
   ved System.Net.Sockets.Socket.EndConnect(IAsyncResult asyncResult)
   ved System.Net.ServicePoint.ConnectSocketInternal(Boolean connectFailure, Socket s4, Socket s6, Socket& socket, IPAddress& address, ConnectSocketState state, IAsyncResult asyncResult, Exception& exception)
   --- Slut på staksporing af indre undtagelser ---
   ved System.Net.HttpWebRequest.EndGetRequestStream(IAsyncResult asyncResult, TransportContext& context)
   ved System.Net.Http.HttpClientHandler.GetRequestStreamCallback(IAsyncResult ar)
   --- Slut på staksporing af indre undtagelser ---
   ved System.Runtime.ExceptionServices.ExceptionDispatchInfo.Throw()
   ved System.Runtime.CompilerServices.TaskAwaiter.HandleNonSuccessAndDebuggerNotification(Task task)
   ved Umbraco.Web.Scheduling.ScheduledPublishing.<PerformRunAsync>d__5.MoveNext()
 2023-08-15 13:39:20,227 [P1416/D3/T143] ERROR Umbraco.Web.Scheduling.ScheduledPublishing - Failed (at "https://localhost/umbraco").
System.Net.Http.HttpRequestException: Der opstod en fejl under afsendelse af anmodningen. ---> System.Net.WebException: Der kunne ikke oprettes forbindelse til fjernserveren ---> System.Net.Sockets.SocketException: Der kunne ikke oprettes forbindelse, fordi destinationscomputeren aktivt nægtede det 127.0.0.1:443
   ved System.Net.Sockets.Socket.InternalEndConnect(IAsyncResult asyncResult)
   ved System.Net.Sockets.Socket.EndConnect(IAsyncResult asyncResult)
   ved System.Net.ServicePoint.ConnectSocketInternal(Boolean connectFailure, Socket s4, Socket s6, Socket& socket, IPAddress& address, ConnectSocketState state, IAsyncResult asyncResult, Exception& exception)
   --- Slut på staksporing af indre undtagelser ---
   ved System.Net.HttpWebRequest.EndGetRequestStream(IAsyncResult asyncResult, TransportContext& context)
   ved System.Net.Http.HttpClientHandler.GetRequestStreamCallback(IAsyncResult ar)
   --- Slut på staksporing af indre undtagelser ---
   ved System.Runtime.ExceptionServices.ExceptionDispatchInfo.Throw()
   ved System.Runtime.CompilerServices.TaskAwaiter.HandleNonSuccessAndDebuggerNotification(Task task)
   ved Umbraco.Web.Scheduling.ScheduledPublishing.<PerformRunAsync>d__5.MoveNext()
 2023-08-15 13:40:24,325 [P1416/D3/T178] ERROR Umbraco.Web.Scheduling.ScheduledPublishing - Failed (at "https://localhost/umbraco").
System.Net.Http.HttpRequestException: Der opstod en fejl under afsendelse af anmodningen. ---> System.Net.WebException: Der kunne ikke oprettes forbindelse til fjernserveren ---> System.Net.Sockets.SocketException: Der kunne ikke oprettes forbindelse, fordi destinationscomputeren aktivt nægtede det 127.0.0.1:443
   ved System.Net.Sockets.Socket.InternalEndConnect(IAsyncResult asyncResult)
   ved System.Net.Sockets.Socket.EndConnect(IAsyncResult asyncResult)
   ved System.Net.ServicePoint.ConnectSocketInternal(Boolean connectFailure, Socket s4, Socket s6, Socket& socket, IPAddress& address, ConnectSocketState state, IAsyncResult asyncResult, Exception& exception)
   --- Slut på staksporing af indre undtagelser ---
   ved System.Net.HttpWebRequest.EndGetRequestStream(IAsyncResult asyncResult, TransportContext& context)
   ved System.Net.Http.HttpClientHandler.GetRequestStreamCallback(IAsyncResult ar)
   --- Slut på staksporing af indre undtagelser ---
   ved System.Runtime.ExceptionServices.ExceptionDispatchInfo.Throw()
   ved System.Runtime.CompilerServices.TaskAwaiter.HandleNonSuccessAndDebuggerNotification(Task task)
   ved Umbraco.Web.Scheduling.ScheduledPublishing.<PerformRunAsync>d__5.MoveNext()
 2023-08-15 13:41:15,938 [P1416/D3/T177] ERROR Umbraco.Web.Scheduling.KeepAlive - Failed (at "https://localhost/umbraco").
System.Net.Http.HttpRequestException: Der opstod en fejl under afsendelse af anmodningen. ---> System.Net.WebException: Der kunne ikke oprettes forbindelse til fjernserveren ---> System.Net.Sockets.SocketException: Der kunne ikke oprettes forbindelse, fordi destinationscomputeren aktivt nægtede det 127.0.0.1:443
   ved System.Net.Sockets.Socket.InternalEndConnect(IAsyncResult asyncResult)
   ved System.Net.Sockets.Socket.EndConnect(IAsyncResult asyncResult)
   ved System.Net.ServicePoint.ConnectSocketInternal(Boolean connectFailure, Socket s4, Socket s6, Socket& socket, IPAddress& address, ConnectSocketState state, IAsyncResult asyncResult, Exception& exception)
   --- Slut på staksporing af indre undtagelser ---
   ved System.Net.HttpWebRequest.EndGetResponse(IAsyncResult asyncResult)
   ved System.Net.Http.HttpClientHandler.GetResponseCallback(IAsyncResult ar)
   --- Slut på staksporing af indre undtagelser ---
   ved System.Runtime.ExceptionServices.ExceptionDispatchInfo.Throw()
   ved System.Runtime.CompilerServices.TaskAwaiter.HandleNonSuccessAndDebuggerNotification(Task task)
   ved Umbraco.Web.Scheduling.KeepAlive.<PerformRunAsync>d__4.MoveNext()
 2023-08-15 13:41:28,412 [P1416/D3/T177] ERROR Umbraco.Web.Scheduling.ScheduledPublishing - Failed (at "https://localhost/umbraco").
System.Net.Http.HttpRequestException: Der opstod en fejl under afsendelse af anmodningen. ---> System.Net.WebException: Der kunne ikke oprettes forbindelse til fjernserveren ---> System.Net.Sockets.SocketException: Der kunne ikke oprettes forbindelse, fordi destinationscomputeren aktivt nægtede det 127.0.0.1:443
   ved System.Net.Sockets.Socket.InternalEndConnect(IAsyncResult asyncResult)
   ved System.Net.Sockets.Socket.EndConnect(IAsyncResult asyncResult)
   ved System.Net.ServicePoint.ConnectSocketInternal(Boolean connectFailure, Socket s4, Socket s6, Socket& socket, IPAddress& address, ConnectSocketState state, IAsyncResult asyncResult, Exception& exception)
   --- Slut på staksporing af indre undtagelser ---
   ved System.Net.HttpWebRequest.EndGetRequestStream(IAsyncResult asyncResult, TransportContext& context)
   ved System.Net.Http.HttpClientHandler.GetRequestStreamCallback(IAsyncResult ar)
   --- Slut på staksporing af indre undtagelser ---
   ved System.Runtime.ExceptionServices.ExceptionDispatchInfo.Throw()
   ved System.Runtime.CompilerServices.TaskAwaiter.HandleNonSuccessAndDebuggerNotification(Task task)
   ved Umbraco.Web.Scheduling.ScheduledPublishing.<PerformRunAsync>d__5.MoveNext()
 2023-08-15 13:42:32,522 [P1416/D3/T199] ERROR Umbraco.Web.Scheduling.ScheduledPublishing - Failed (at "https://localhost/umbraco").
System.Net.Http.HttpRequestException: Der opstod en fejl under afsendelse af anmodningen. ---> System.Net.WebException: Der kunne ikke oprettes forbindelse til fjernserveren ---> System.Net.Sockets.SocketException: Der kunne ikke oprettes forbindelse, fordi destinationscomputeren aktivt nægtede det 127.0.0.1:443
   ved System.Net.Sockets.Socket.InternalEndConnect(IAsyncResult asyncResult)
   ved System.Net.Sockets.Socket.EndConnect(IAsyncResult asyncResult)
   ved System.Net.ServicePoint.ConnectSocketInternal(Boolean connectFailure, Socket s4, Socket s6, Socket& socket, IPAddress& address, ConnectSocketState state, IAsyncResult asyncResult, Exception& exception)
   --- Slut på staksporing af indre undtagelser ---
   ved System.Net.HttpWebRequest.EndGetRequestStream(IAsyncResult asyncResult, TransportContext& context)
   ved System.Net.Http.HttpClientHandler.GetRequestStreamCallback(IAsyncResult ar)
   --- Slut på staksporing af indre undtagelser ---
   ved System.Runtime.ExceptionServices.ExceptionDispatchInfo.Throw()
   ved System.Runtime.CompilerServices.TaskAwaiter.HandleNonSuccessAndDebuggerNotification(Task task)
   ved Umbraco.Web.Scheduling.ScheduledPublishing.<PerformRunAsync>d__5.MoveNext()
 2023-08-15 13:43:36,639 [P1416/D3/T221] ERROR Umbraco.Web.Scheduling.ScheduledPublishing - Failed (at "https://localhost/umbraco").
System.Net.Http.HttpRequestException: Der opstod en fejl under afsendelse af anmodningen. ---> System.Net.WebException: Der kunne ikke oprettes forbindelse til fjernserveren ---> System.Net.Sockets.SocketException: Der kunne ikke oprettes forbindelse, fordi destinationscomputeren aktivt nægtede det 127.0.0.1:443
   ved System.Net.Sockets.Socket.InternalEndConnect(IAsyncResult asyncResult)
   ved System.Net.Sockets.Socket.EndConnect(IAsyncResult asyncResult)
   ved System.Net.ServicePoint.ConnectSocketInternal(Boolean connectFailure, Socket s4, Socket s6, Socket& socket, IPAddress& address, ConnectSocketState state, IAsyncResult asyncResult, Exception& exception)
   --- Slut på staksporing af indre undtagelser ---
   ved System.Net.HttpWebRequest.EndGetRequestStream(IAsyncResult asyncResult, TransportContext& context)
   ved System.Net.Http.HttpClientHandler.GetRequestStreamCallback(IAsyncResult ar)
   --- Slut på staksporing af indre undtagelser ---
   ved System.Runtime.ExceptionServices.ExceptionDispatchInfo.Throw()
   ved System.Runtime.CompilerServices.TaskAwaiter.HandleNonSuccessAndDebuggerNotification(Task task)
   ved Umbraco.Web.Scheduling.ScheduledPublishing.<PerformRunAsync>d__5.MoveNext()
 2023-08-15 13:44:40,745 [P1416/D3/T241] ERROR Umbraco.Web.Scheduling.ScheduledPublishing - Failed (at "https://localhost/umbraco").
System.Net.Http.HttpRequestException: Der opstod en fejl under afsendelse af anmodningen. ---> System.Net.WebException: Der kunne ikke oprettes forbindelse til fjernserveren ---> System.Net.Sockets.SocketException: Der kunne ikke oprettes forbindelse, fordi destinationscomputeren aktivt nægtede det 127.0.0.1:443
   ved System.Net.Sockets.Socket.InternalEndConnect(IAsyncResult asyncResult)
   ved System.Net.Sockets.Socket.EndConnect(IAsyncResult asyncResult)
   ved System.Net.ServicePoint.ConnectSocketInternal(Boolean connectFailure, Socket s4, Socket s6, Socket& socket, IPAddress& address, ConnectSocketState state, IAsyncResult asyncResult, Exception& exception)
   --- Slut på staksporing af indre undtagelser ---
   ved System.Net.HttpWebRequest.EndGetRequestStream(IAsyncResult asyncResult, TransportContext& context)
   ved System.Net.Http.HttpClientHandler.GetRequestStreamCallback(IAsyncResult ar)
   --- Slut på staksporing af indre undtagelser ---
   ved System.Runtime.ExceptionServices.ExceptionDispatchInfo.Throw()
   ved System.Runtime.CompilerServices.TaskAwaiter.HandleNonSuccessAndDebuggerNotification(Task task)
   ved Umbraco.Web.Scheduling.ScheduledPublishing.<PerformRunAsync>d__5.MoveNext()
 2023-08-15 13:45:44,869 [P1416/D3/T262] ERROR Umbraco.Web.Scheduling.ScheduledPublishing - Failed (at "https://localhost/umbraco").
System.Net.Http.HttpRequestException: Der opstod en fejl under afsendelse af anmodningen. ---> System.Net.WebException: Der kunne ikke oprettes forbindelse til fjernserveren ---> System.Net.Sockets.SocketException: Der kunne ikke oprettes forbindelse, fordi destinationscomputeren aktivt nægtede det 127.0.0.1:443
   ved System.Net.Sockets.Socket.InternalEndConnect(IAsyncResult asyncResult)
   ved System.Net.Sockets.Socket.EndConnect(IAsyncResult asyncResult)
   ved System.Net.ServicePoint.ConnectSocketInternal(Boolean connectFailure, Socket s4, Socket s6, Socket& socket, IPAddress& address, ConnectSocketState state, IAsyncResult asyncResult, Exception& exception)
   --- Slut på staksporing af indre undtagelser ---
   ved System.Net.HttpWebRequest.EndGetRequestStream(IAsyncResult asyncResult, TransportContext& context)
   ved System.Net.Http.HttpClientHandler.GetRequestStreamCallback(IAsyncResult ar)
   --- Slut på staksporing af indre undtagelser ---
   ved System.Runtime.ExceptionServices.ExceptionDispatchInfo.Throw()
   ved System.Runtime.CompilerServices.TaskAwaiter.HandleNonSuccessAndDebuggerNotification(Task task)
   ved Umbraco.Web.Scheduling.ScheduledPublishing.<PerformRunAsync>d__5.MoveNext()
 2023-08-15 13:46:20,050 [P1416/D3/T279] ERROR Umbraco.Web.Scheduling.KeepAlive - Failed (at "https://localhost/umbraco").
System.Net.Http.HttpRequestException: Der opstod en fejl under afsendelse af anmodningen. ---> System.Net.WebException: Der kunne ikke oprettes forbindelse til fjernserveren ---> System.Net.Sockets.SocketException: Der kunne ikke oprettes forbindelse, fordi destinationscomputeren aktivt nægtede det 127.0.0.1:443
   ved System.Net.Sockets.Socket.InternalEndConnect(IAsyncResult asyncResult)
   ved System.Net.Sockets.Socket.EndConnect(IAsyncResult asyncResult)
   ved System.Net.ServicePoint.ConnectSocketInternal(Boolean connectFailure, Socket s4, Socket s6, Socket& socket, IPAddress& address, ConnectSocketState state, IAsyncResult asyncResult, Exception& exception)
   --- Slut på staksporing af indre undtagelser ---
   ved System.Net.HttpWebRequest.EndGetResponse(IAsyncResult asyncResult)
   ved System.Net.Http.HttpClientHandler.GetResponseCallback(IAsyncResult ar)
   --- Slut på staksporing af indre undtagelser ---
   ved System.Runtime.ExceptionServices.ExceptionDispatchInfo.Throw()
   ved System.Runtime.CompilerServices.TaskAwaiter.HandleNonSuccessAndDebuggerNotification(Task task)
   ved Umbraco.Web.Scheduling.KeepAlive.<PerformRunAsync>d__4.MoveNext()
 2023-08-15 13:46:48,925 [P1416/D3/T278] ERROR Umbraco.Web.Scheduling.ScheduledPublishing - Failed (at "https://localhost/umbraco").
System.Net.Http.HttpRequestException: Der opstod en fejl under afsendelse af anmodningen. ---> System.Net.WebException: Der kunne ikke oprettes forbindelse til fjernserveren ---> System.Net.Sockets.SocketException: Der kunne ikke oprettes forbindelse, fordi destinationscomputeren aktivt nægtede det 127.0.0.1:443
   ved System.Net.Sockets.Socket.InternalEndConnect(IAsyncResult asyncResult)
   ved System.Net.Sockets.Socket.EndConnect(IAsyncResult asyncResult)
   ved System.Net.ServicePoint.ConnectSocketInternal(Boolean connectFailure, Socket s4, Socket s6, Socket& socket, IPAddress& address, ConnectSocketState state, IAsyncResult asyncResult, Exception& exception)
   --- Slut på staksporing af indre undtagelser ---
   ved System.Net.HttpWebRequest.EndGetRequestStream(IAsyncResult asyncResult, TransportContext& context)
   ved System.Net.Http.HttpClientHandler.GetRequestStreamCallback(IAsyncResult ar)
   --- Slut på staksporing af indre undtagelser ---
   ved System.Runtime.ExceptionServices.ExceptionDispatchInfo.Throw()
   ved System.Runtime.CompilerServices.TaskAwaiter.HandleNonSuccessAndDebuggerNotification(Task task)
   ved Umbraco.Web.Scheduling.ScheduledPublishing.<PerformRunAsync>d__5.MoveNext()
 2023-08-15 13:47:53,001 [P1416/D3/T304] ERROR Umbraco.Web.Scheduling.ScheduledPublishing - Failed (at "https://localhost/umbraco").
System.Net.Http.HttpRequestException: Der opstod en fejl under afsendelse af anmodningen. ---> System.Net.WebException: Der kunne ikke oprettes forbindelse til fjernserveren ---> System.Net.Sockets.SocketException: Der kunne ikke oprettes forbindelse, fordi destinationscomputeren aktivt nægtede det 127.0.0.1:443
   ved System.Net.Sockets.Socket.InternalEndConnect(IAsyncResult asyncResult)
   ved System.Net.Sockets.Socket.EndConnect(IAsyncResult asyncResult)
   ved System.Net.ServicePoint.ConnectSocketInternal(Boolean connectFailure, Socket s4, Socket s6, Socket& socket, IPAddress& address, ConnectSocketState state, IAsyncResult asyncResult, Exception& exception)
   --- Slut på staksporing af indre undtagelser ---
   ved System.Net.HttpWebRequest.EndGetRequestStream(IAsyncResult asyncResult, TransportContext& context)
   ved System.Net.Http.HttpClientHandler.GetRequestStreamCallback(IAsyncResult ar)
   --- Slut på staksporing af indre undtagelser ---
   ved System.Runtime.ExceptionServices.ExceptionDispatchInfo.Throw()
   ved System.Runtime.CompilerServices.TaskAwaiter.HandleNonSuccessAndDebuggerNotification(Task task)
   ved Umbraco.Web.Scheduling.ScheduledPublishing.<PerformRunAsync>d__5.MoveNext()
 2023-08-15 13:48:57,097 [P1416/D3/T325] ERROR Umbraco.Web.Scheduling.ScheduledPublishing - Failed (at "https://localhost/umbraco").
System.Net.Http.HttpRequestException: Der opstod en fejl under afsendelse af anmodningen. ---> System.Net.WebException: Der kunne ikke oprettes forbindelse til fjernserveren ---> System.Net.Sockets.SocketException: Der kunne ikke oprettes forbindelse, fordi destinationscomputeren aktivt nægtede det 127.0.0.1:443
   ved System.Net.Sockets.Socket.InternalEndConnect(IAsyncResult asyncResult)
   ved System.Net.Sockets.Socket.EndConnect(IAsyncResult asyncResult)
   ved System.Net.ServicePoint.ConnectSocketInternal(Boolean connectFailure, Socket s4, Socket s6, Socket& socket, IPAddress& address, ConnectSocketState state, IAsyncResult asyncResult, Exception& exception)
   --- Slut på staksporing af indre undtagelser ---
   ved System.Net.HttpWebRequest.EndGetRequestStream(IAsyncResult asyncResult, TransportContext& context)
   ved System.Net.Http.HttpClientHandler.GetRequestStreamCallback(IAsyncResult ar)
   --- Slut på staksporing af indre undtagelser ---
   ved System.Runtime.ExceptionServices.ExceptionDispatchInfo.Throw()
   ved System.Runtime.CompilerServices.TaskAwaiter.HandleNonSuccessAndDebuggerNotification(Task task)
   ved Umbraco.Web.Scheduling.ScheduledPublishing.<PerformRunAsync>d__5.MoveNext()
 2023-08-15 13:50:01,189 [P1416/D3/T346] ERROR Umbraco.Web.Scheduling.ScheduledPublishing - Failed (at "https://localhost/umbraco").
System.Net.Http.HttpRequestException: Der opstod en fejl under afsendelse af anmodningen. ---> System.Net.WebException: Der kunne ikke oprettes forbindelse til fjernserveren ---> System.Net.Sockets.SocketException: Der kunne ikke oprettes forbindelse, fordi destinationscomputeren aktivt nægtede det 127.0.0.1:443
   ved System.Net.Sockets.Socket.InternalEndConnect(IAsyncResult asyncResult)
   ved System.Net.Sockets.Socket.EndConnect(IAsyncResult asyncResult)
   ved System.Net.ServicePoint.ConnectSocketInternal(Boolean connectFailure, Socket s4, Socket s6, Socket& socket, IPAddress& address, ConnectSocketState state, IAsyncResult asyncResult, Exception& exception)
   --- Slut på staksporing af indre undtagelser ---
   ved System.Net.HttpWebRequest.EndGetRequestStream(IAsyncResult asyncResult, TransportContext& context)
   ved System.Net.Http.HttpClientHandler.GetRequestStreamCallback(IAsyncResult ar)
   --- Slut på staksporing af indre undtagelser ---
   ved System.Runtime.ExceptionServices.ExceptionDispatchInfo.Throw()
   ved System.Runtime.CompilerServices.TaskAwaiter.HandleNonSuccessAndDebuggerNotification(Task task)
   ved Umbraco.Web.Scheduling.ScheduledPublishing.<PerformRunAsync>d__5.MoveNext()
 2023-08-15 13:51:05,269 [P1416/D3/T367] ERROR Umbraco.Web.Scheduling.ScheduledPublishing - Failed (at "https://localhost/umbraco").
System.Net.Http.HttpRequestException: Der opstod en fejl under afsendelse af anmodningen. ---> System.Net.WebException: Der kunne ikke oprettes forbindelse til fjernserveren ---> System.Net.Sockets.SocketException: Der kunne ikke oprettes forbindelse, fordi destinationscomputeren aktivt nægtede det 127.0.0.1:443
   ved System.Net.Sockets.Socket.InternalEndConnect(IAsyncResult asyncResult)
   ved System.Net.Sockets.Socket.EndConnect(IAsyncResult asyncResult)
   ved System.Net.ServicePoint.ConnectSocketInternal(Boolean connectFailure, Socket s4, Socket s6, Socket& socket, IPAddress& address, ConnectSocketState state, IAsyncResult asyncResult, Exception& exception)
   --- Slut på staksporing af indre undtagelser ---
   ved System.Net.HttpWebRequest.EndGetRequestStream(IAsyncResult asyncResult, TransportContext& context)
   ved System.Net.Http.HttpClientHandler.GetRequestStreamCallback(IAsyncResult ar)
   --- Slut på staksporing af indre undtagelser ---
   ved System.Runtime.ExceptionServices.ExceptionDispatchInfo.Throw()
   ved System.Runtime.CompilerServices.TaskAwaiter.HandleNonSuccessAndDebuggerNotification(Task task)
   ved Umbraco.Web.Scheduling.ScheduledPublishing.<PerformRunAsync>d__5.MoveNext()
 2023-08-15 13:51:24,105 [P1416/D3/T366] ERROR Umbraco.Web.Scheduling.KeepAlive - Failed (at "https://localhost/umbraco").
System.Net.Http.HttpRequestException: Der opstod en fejl under afsendelse af anmodningen. ---> System.Net.WebException: Der kunne ikke oprettes forbindelse til fjernserveren ---> System.Net.Sockets.SocketException: Der kunne ikke oprettes forbindelse, fordi destinationscomputeren aktivt nægtede det 127.0.0.1:443
   ved System.Net.Sockets.Socket.InternalEndConnect(IAsyncResult asyncResult)
   ved System.Net.Sockets.Socket.EndConnect(IAsyncResult asyncResult)
   ved System.Net.ServicePoint.ConnectSocketInternal(Boolean connectFailure, Socket s4, Socket s6, Socket& socket, IPAddress& address, ConnectSocketState state, IAsyncResult asyncResult, Exception& exception)
   --- Slut på staksporing af indre undtagelser ---
   ved System.Net.HttpWebRequest.EndGetResponse(IAsyncResult asyncResult)
   ved System.Net.Http.HttpClientHandler.GetResponseCallback(IAsyncResult ar)
   --- Slut på staksporing af indre undtagelser ---
   ved System.Runtime.ExceptionServices.ExceptionDispatchInfo.Throw()
   ved System.Runtime.CompilerServices.TaskAwaiter.HandleNonSuccessAndDebuggerNotification(Task task)
   ved Umbraco.Web.Scheduling.KeepAlive.<PerformRunAsync>d__4.MoveNext()
 2023-08-15 13:52:09,376 [P1416/D3/T388] ERROR Umbraco.Web.Scheduling.ScheduledPublishing - Failed (at "https://localhost/umbraco").
System.Net.Http.HttpRequestException: Der opstod en fejl under afsendelse af anmodningen. ---> System.Net.WebException: Der kunne ikke oprettes forbindelse til fjernserveren ---> System.Net.Sockets.SocketException: Der kunne ikke oprettes forbindelse, fordi destinationscomputeren aktivt nægtede det 127.0.0.1:443
   ved System.Net.Sockets.Socket.InternalEndConnect(IAsyncResult asyncResult)
   ved System.Net.Sockets.Socket.EndConnect(IAsyncResult asyncResult)
   ved System.Net.ServicePoint.ConnectSocketInternal(Boolean connectFailure, Socket s4, Socket s6, Socket& socket, IPAddress& address, ConnectSocketState state, IAsyncResult asyncResult, Exception& exception)
   --- Slut på staksporing af indre undtagelser ---
   ved System.Net.HttpWebRequest.EndGetRequestStream(IAsyncResult asyncResult, TransportContext& context)
   ved System.Net.Http.HttpClientHandler.GetRequestStreamCallback(IAsyncResult ar)
   --- Slut på staksporing af indre undtagelser ---
   ved System.Runtime.ExceptionServices.ExceptionDispatchInfo.Throw()
   ved System.Runtime.CompilerServices.TaskAwaiter.HandleNonSuccessAndDebuggerNotification(Task task)
   ved Umbraco.Web.Scheduling.ScheduledPublishing.<PerformRunAsync>d__5.MoveNext()
 2023-08-15 13:53:13,463 [P1416/D3/T408] ERROR Umbraco.Web.Scheduling.ScheduledPublishing - Failed (at "https://localhost/umbraco").
System.Net.Http.HttpRequestException: Der opstod en fejl under afsendelse af anmodningen. ---> System.Net.WebException: Der kunne ikke oprettes forbindelse til fjernserveren ---> System.Net.Sockets.SocketException: Der kunne ikke oprettes forbindelse, fordi destinationscomputeren aktivt nægtede det 127.0.0.1:443
   ved System.Net.Sockets.Socket.InternalEndConnect(IAsyncResult asyncResult)
   ved System.Net.Sockets.Socket.EndConnect(IAsyncResult asyncResult)
   ved System.Net.ServicePoint.ConnectSocketInternal(Boolean connectFailure, Socket s4, Socket s6, Socket& socket, IPAddress& address, ConnectSocketState state, IAsyncResult asyncResult, Exception& exception)
   --- Slut på staksporing af indre undtagelser ---
   ved System.Net.HttpWebRequest.EndGetRequestStream(IAsyncResult asyncResult, TransportContext& context)
   ved System.Net.Http.HttpClientHandler.GetRequestStreamCallback(IAsyncResult ar)
   --- Slut på staksporing af indre undtagelser ---
   ved System.Runtime.ExceptionServices.ExceptionDispatchInfo.Throw()
   ved System.Runtime.CompilerServices.TaskAwaiter.HandleNonSuccessAndDebuggerNotification(Task task)
   ved Umbraco.Web.Scheduling.ScheduledPublishing.<PerformRunAsync>d__5.MoveNext()
 2023-08-15 13:54:17,534 [P1416/D3/T410] ERROR Umbraco.Web.Scheduling.ScheduledPublishing - Failed (at "https://localhost/umbraco").
System.Net.Http.HttpRequestException: Der opstod en fejl under afsendelse af anmodningen. ---> System.Net.WebException: Der kunne ikke oprettes forbindelse til fjernserveren ---> System.Net.Sockets.SocketException: Der kunne ikke oprettes forbindelse, fordi destinationscomputeren aktivt nægtede det 127.0.0.1:443
   ved System.Net.Sockets.Socket.InternalEndConnect(IAsyncResult asyncResult)
   ved System.Net.Sockets.Socket.EndConnect(IAsyncResult asyncResult)
   ved System.Net.ServicePoint.ConnectSocketInternal(Boolean connectFailure, Socket s4, Socket s6, Socket& socket, IPAddress& address, ConnectSocketState state, IAsyncResult asyncResult, Exception& exception)
   --- Slut på staksporing af indre undtagelser ---
   ved System.Net.HttpWebRequest.EndGetRequestStream(IAsyncResult asyncResult, TransportContext& context)
   ved System.Net.Http.HttpClientHandler.GetRequestStreamCallback(IAsyncResult ar)
   --- Slut på staksporing af indre undtagelser ---
   ved System.Runtime.ExceptionServices.ExceptionDispatchInfo.Throw()
   ved System.Runtime.CompilerServices.TaskAwaiter.HandleNonSuccessAndDebuggerNotification(Task task)
   ved Umbraco.Web.Scheduling.ScheduledPublishing.<PerformRunAsync>d__5.MoveNext()
 2023-08-15 13:55:21,610 [P1416/D3/T431] ERROR Umbraco.Web.Scheduling.ScheduledPublishing - Failed (at "https://localhost/umbraco").
System.Net.Http.HttpRequestException: Der opstod en fejl under afsendelse af anmodningen. ---> System.Net.WebException: Der kunne ikke oprettes forbindelse til fjernserveren ---> System.Net.Sockets.SocketException: Der kunne ikke oprettes forbindelse, fordi destinationscomputeren aktivt nægtede det 127.0.0.1:443
   ved System.Net.Sockets.Socket.InternalEndConnect(IAsyncResult asyncResult)
   ved System.Net.Sockets.Socket.EndConnect(IAsyncResult asyncResult)
   ved System.Net.ServicePoint.ConnectSocketInternal(Boolean connectFailure, Socket s4, Socket s6, Socket& socket, IPAddress& address, ConnectSocketState state, IAsyncResult asyncResult, Exception& exception)
   --- Slut på staksporing af indre undtagelser ---
   ved System.Net.HttpWebRequest.EndGetRequestStream(IAsyncResult asyncResult, TransportContext& context)
   ved System.Net.Http.HttpClientHandler.GetRequestStreamCallback(IAsyncResult ar)
   --- Slut på staksporing af indre undtagelser ---
   ved System.Runtime.ExceptionServices.ExceptionDispatchInfo.Throw()
   ved System.Runtime.CompilerServices.TaskAwaiter.HandleNonSuccessAndDebuggerNotification(Task task)
   ved Umbraco.Web.Scheduling.ScheduledPublishing.<PerformRunAsync>d__5.MoveNext()
 2023-08-15 13:56:25,670 [P1416/D3/T390] ERROR Umbraco.Web.Scheduling.ScheduledPublishing - Failed (at "https://localhost/umbraco").
System.Net.Http.HttpRequestException: Der opstod en fejl under afsendelse af anmodningen. ---> System.Net.WebException: Der kunne ikke oprettes forbindelse til fjernserveren ---> System.Net.Sockets.SocketException: Der kunne ikke oprettes forbindelse, fordi destinationscomputeren aktivt nægtede det 127.0.0.1:443
   ved System.Net.Sockets.Socket.InternalEndConnect(IAsyncResult asyncResult)
   ved System.Net.Sockets.Socket.EndConnect(IAsyncResult asyncResult)
   ved System.Net.ServicePoint.ConnectSocketInternal(Boolean connectFailure, Socket s4, Socket s6, Socket& socket, IPAddress& address, ConnectSocketState state, IAsyncResult asyncResult, Exception& exception)
   --- Slut på staksporing af indre undtagelser ---
   ved System.Net.HttpWebRequest.EndGetRequestStream(IAsyncResult asyncResult, TransportContext& context)
   ved System.Net.Http.HttpClientHandler.GetRequestStreamCallback(IAsyncResult ar)
   --- Slut på staksporing af indre undtagelser ---
   ved System.Runtime.ExceptionServices.ExceptionDispatchInfo.Throw()
   ved System.Runtime.CompilerServices.TaskAwaiter.HandleNonSuccessAndDebuggerNotification(Task task)
   ved Umbraco.Web.Scheduling.ScheduledPublishing.<PerformRunAsync>d__5.MoveNext()
 2023-08-15 13:56:28,174 [P1416/D3/T390] ERROR Umbraco.Web.Scheduling.KeepAlive - Failed (at "https://localhost/umbraco").
System.Net.Http.HttpRequestException: Der opstod en fejl under afsendelse af anmodningen. ---> System.Net.WebException: Der kunne ikke oprettes forbindelse til fjernserveren ---> System.Net.Sockets.SocketException: Der kunne ikke oprettes forbindelse, fordi destinationscomputeren aktivt nægtede det 127.0.0.1:443
   ved System.Net.Sockets.Socket.InternalEndConnect(IAsyncResult asyncResult)
   ved System.Net.Sockets.Socket.EndConnect(IAsyncResult asyncResult)
   ved System.Net.ServicePoint.ConnectSocketInternal(Boolean connectFailure, Socket s4, Socket s6, Socket& socket, IPAddress& address, ConnectSocketState state, IAsyncResult asyncResult, Exception& exception)
   --- Slut på staksporing af indre undtagelser ---
   ved System.Net.HttpWebRequest.EndGetResponse(IAsyncResult asyncResult)
   ved System.Net.Http.HttpClientHandler.GetResponseCallback(IAsyncResult ar)
   --- Slut på staksporing af indre undtagelser ---
   ved System.Runtime.ExceptionServices.ExceptionDispatchInfo.Throw()
   ved System.Runtime.CompilerServices.TaskAwaiter.HandleNonSuccessAndDebuggerNotification(Task task)
   ved Umbraco.Web.Scheduling.KeepAlive.<PerformRunAsync>d__4.MoveNext()
 2023-08-15 13:57:29,723 [P1416/D3/T368] ERROR Umbraco.Web.Scheduling.ScheduledPublishing - Failed (at "https://localhost/umbraco").
System.Net.Http.HttpRequestException: Der opstod en fejl under afsendelse af anmodningen. ---> System.Net.WebException: Der kunne ikke oprettes forbindelse til fjernserveren ---> System.Net.Sockets.SocketException: Der kunne ikke oprettes forbindelse, fordi destinationscomputeren aktivt nægtede det 127.0.0.1:443
   ved System.Net.Sockets.Socket.InternalEndConnect(IAsyncResult asyncResult)
   ved System.Net.Sockets.Socket.EndConnect(IAsyncResult asyncResult)
   ved System.Net.ServicePoint.ConnectSocketInternal(Boolean connectFailure, Socket s4, Socket s6, Socket& socket, IPAddress& address, ConnectSocketState state, IAsyncResult asyncResult, Exception& exception)
   --- Slut på staksporing af indre undtagelser ---
   ved System.Net.HttpWebRequest.EndGetRequestStream(IAsyncResult asyncResult, TransportContext& context)
   ved System.Net.Http.HttpClientHandler.GetRequestStreamCallback(IAsyncResult ar)
   --- Slut på staksporing af indre undtagelser ---
   ved System.Runtime.ExceptionServices.ExceptionDispatchInfo.Throw()
   ved System.Runtime.CompilerServices.TaskAwaiter.HandleNonSuccessAndDebuggerNotification(Task task)
   ved Umbraco.Web.Scheduling.ScheduledPublishing.<PerformRunAsync>d__5.MoveNext()
 2023-08-15 13:58:33,846 [P1416/D3/T370] ERROR Umbraco.Web.Scheduling.ScheduledPublishing - Failed (at "https://localhost/umbraco").
System.Net.Http.HttpRequestException: Der opstod en fejl under afsendelse af anmodningen. ---> System.Net.WebException: Der kunne ikke oprettes forbindelse til fjernserveren ---> System.Net.Sockets.SocketException: Der kunne ikke oprettes forbindelse, fordi destinationscomputeren aktivt nægtede det 127.0.0.1:443
   ved System.Net.Sockets.Socket.InternalEndConnect(IAsyncResult asyncResult)
   ved System.Net.Sockets.Socket.EndConnect(IAsyncResult asyncResult)
   ved System.Net.ServicePoint.ConnectSocketInternal(Boolean connectFailure, Socket s4, Socket s6, Socket& socket, IPAddress& address, ConnectSocketState state, IAsyncResult asyncResult, Exception& exception)
   --- Slut på staksporing af indre undtagelser ---
   ved System.Net.HttpWebRequest.EndGetRequestStream(IAsyncResult asyncResult, TransportContext& context)
   ved System.Net.Http.HttpClientHandler.GetRequestStreamCallback(IAsyncResult ar)
   --- Slut på staksporing af indre undtagelser ---
   ved System.Runtime.ExceptionServices.ExceptionDispatchInfo.Throw()
   ved System.Runtime.CompilerServices.TaskAwaiter.HandleNonSuccessAndDebuggerNotification(Task task)
   ved Umbraco.Web.Scheduling.ScheduledPublishing.<PerformRunAsync>d__5.MoveNext()
 2023-12-21 08:31:36,945 [P17332/D2/T1] INFO  Umbraco.Core.CoreBootManager - Umbraco 7.4.3 application starting on JONAS
 2023-12-21 08:31:37,005 [P17332/D2/T1] INFO  Umbraco.Core.PluginManager - Determining hash of code files on disk
 2023-12-21 08:31:37,028 [P17332/D2/T1] INFO  Umbraco.Core.PluginManager - Hash determined (took 22ms)
 2023-12-21 08:31:37,082 [P17332/D2/T1] INFO  Umbraco.Core.PluginManager - Starting resolution types of umbraco.interfaces.IApplicationStartupHandler
 2023-12-21 08:31:37,276 [P17332/D2/T1] INFO  Umbraco.Core.PluginManager - Completed resolution of types of umbraco.interfaces.IApplicationStartupHandler, found 0 (took 193ms)
 2023-12-21 08:31:37,294 [P17332/D2/T1] INFO  Umbraco.Core.PluginManager - Starting resolution types of Umbraco.Core.PropertyEditors.IPropertyEditorValueConverter
 2023-12-21 08:31:37,299 [P17332/D2/T1] INFO  Umbraco.Core.PluginManager - Completed resolution of types of Umbraco.Core.PropertyEditors.IPropertyEditorValueConverter, found 0 (took 5ms)
 2023-12-21 08:31:37,300 [P17332/D2/T1] INFO  Umbraco.Core.PluginManager - Starting resolution types of Umbraco.Core.PropertyEditors.IPropertyValueConverter
 2023-12-21 08:31:37,320 [P17332/D2/T1] INFO  Umbraco.Core.PluginManager - Completed resolution of types of Umbraco.Core.PropertyEditors.IPropertyValueConverter, found 0 (took 20ms)
 2023-12-21 08:31:37,332 [P17332/D2/T1] INFO  Umbraco.Core.PluginManager - Starting resolution types of Umbraco.Web.Mvc.SurfaceController
 2023-12-21 08:31:37,345 [P17332/D2/T1] INFO  Umbraco.Core.PluginManager - Completed resolution of types of Umbraco.Web.Mvc.SurfaceController, found 0 (took 12ms)
 2023-12-21 08:31:37,345 [P17332/D2/T1] INFO  Umbraco.Core.PluginManager - Starting resolution types of Umbraco.Web.WebApi.UmbracoApiController
 2023-12-21 08:31:37,364 [P17332/D2/T1] INFO  Umbraco.Core.PluginManager - Completed resolution of types of Umbraco.Web.WebApi.UmbracoApiController, found 0 (took 19ms)
 2023-12-21 08:31:37,392 [P17332/D2/T1] INFO  Umbraco.Core.PluginManager - Starting resolution types of Umbraco.Core.Media.IThumbnailProvider
 2023-12-21 08:31:37,396 [P17332/D2/T1] INFO  Umbraco.Core.PluginManager - Completed resolution of types of Umbraco.Core.Media.IThumbnailProvider, found 0 (took 3ms)
 2023-12-21 08:31:37,396 [P17332/D2/T1] INFO  Umbraco.Core.PluginManager - Starting resolution types of Umbraco.Core.Media.IImageUrlProvider
 2023-12-21 08:31:37,413 [P17332/D2/T1] INFO  Umbraco.Core.PluginManager - Completed resolution of types of Umbraco.Core.Media.IImageUrlProvider, found 0 (took 16ms)
 2023-12-21 08:31:38,443 [P17332/D2/T1] INFO  Umbraco.Core.DatabaseContext - CanConnect = True
 2023-12-21 08:31:38,825 [P17332/D2/T1] INFO  Umbraco.Core.DatabaseContext - CanConnect = True
 2023-12-21 08:31:38,845 [P17332/D2/T1] INFO  Umbraco.Core.DatabaseContext - CanConnect = True
 2023-12-21 08:31:38,920 [P17332/D2/T1] WARN  Umbraco.Core.Sync.DatabaseServerMessenger - No last synced Id found, this generally means this is a new server/install. The server will build its caches and indexes, and then adjust its last synced Id to the latest found in the database and maintain cache updates based on that Id.
 2023-12-21 08:31:38,992 [P17332/D2/T1] INFO  umbraco.content - Load Xml from file...
 2023-12-21 08:31:39,021 [P17332/D2/T1] INFO  umbraco.content - Loaded Xml from file.
 2023-12-21 08:31:39,029 [P17332/D2/T1] INFO  umbraco.content - Loading content from database...
 2023-12-21 08:31:41,906 [P17332/D2/T1] INFO  Umbraco.Core.PluginManager - Starting resolution types of Umbraco.Core.PropertyEditors.IParameterEditor
 2023-12-21 08:31:41,923 [P17332/D2/T1] INFO  Umbraco.Core.PluginManager - Completed resolution of types of Umbraco.Core.PropertyEditors.IParameterEditor, found 0 (took 17ms)
 2023-12-21 08:31:42,756 [P17332/D2/T18] INFO  Umbraco.Core.PluginManager - Starting resolution types of Umbraco.Core.Persistence.Mappers.BaseMapper
 2023-12-21 08:31:42,761 [P17332/D2/T18] INFO  Umbraco.Core.PluginManager - Completed resolution of types of Umbraco.Core.Persistence.Mappers.BaseMapper, found 0 (took 6ms)
 2023-12-21 08:31:43,695 [P17332/D2/T1] INFO  Umbraco.Web.Cache.CacheRefresherEventHandler - Initializing Umbraco internal event handlers for cache refreshing
 2023-12-21 08:31:43,707 [P17332/D2/T1] INFO  Umbraco.Web.Search.ExamineEvents - Initializing Examine and binding to business logic events
 2023-12-21 08:31:43,708 [P17332/D2/T1] INFO  Umbraco.Web.Search.ExamineEvents - Adding examine event handlers for index providers: 3
 2023-12-21 08:31:43,787 [P17332/D2/T1] INFO  Umbraco.Core.CoreBootManager - Umbraco application startup complete (took 6909ms)
 2023-12-21 08:31:44,280 [P17332/D2/T12] INFO  umbraco.content - Save Xml to file...
 2023-12-21 08:31:44,287 [P17332/D2/T22] INFO  umbraco.content - Saved Xml to file.
 2023-12-21 08:31:44,745 [P17332/D2/T7] INFO  Umbraco.Core.Sync.ApplicationUrlHelper - ApplicationUrl: https://localhost/umbraco (UmbracoModule request)
 2023-12-21 08:31:52,089 [P17332/D2/T7] WARN  Umbraco.Core.PropertyEditors.LegacyPropertyEditorIdToAliasConverter - A legacy GUID id was generated for property editor Imulus.Archetype. This occurs when the legacy APIs are used and done to attempt to maintain backwards compatibility. Consider upgrading all code to use the new Services APIs instead to avoid any potential issues.
 2023-12-21 08:31:52,095 [P17332/D2/T7] INFO  Umbraco.Core.PluginManager - Starting resolution types of umbraco.interfaces.IDataType
 2023-12-21 08:31:52,119 [P17332/D2/T7] INFO  Umbraco.Core.PluginManager - Completed resolution of types of umbraco.interfaces.IDataType, found 0 (took 23ms)
 2023-12-21 08:31:52,127 [P17332/D2/T7] INFO  Umbraco.Core.PluginManager - Starting resolution types of umbraco.interfaces.ITree
 2023-12-21 08:31:52,146 [P17332/D2/T7] INFO  Umbraco.Core.PluginManager - Completed resolution of types of umbraco.interfaces.ITree, found 0 (took 18ms)
 2023-12-21 08:31:52,160 [P17332/D2/T7] INFO  Umbraco.Core.PluginManager - Starting resolution types of Umbraco.Web.Trees.TreeController
 2023-12-21 08:31:52,168 [P17332/D2/T7] INFO  Umbraco.Core.PluginManager - Completed resolution of types of Umbraco.Web.Trees.TreeController, found 0 (took 8ms)
 2023-12-21 08:31:52,170 [P17332/D2/T7] INFO  Umbraco.Core.PluginManager - Starting resolution types of umbraco.interfaces.ITree
 2023-12-21 08:31:52,190 [P17332/D2/T7] INFO  Umbraco.Core.PluginManager - Completed resolution of types of umbraco.interfaces.ITree, found 0 (took 21ms)
 2023-12-21 08:31:52,228 [P17332/D2/T7] INFO  Umbraco.Core.PluginManager - Starting resolution types of umbraco.interfaces.IApplication
 2023-12-21 08:31:52,237 [P17332/D2/T7] INFO  Umbraco.Core.PluginManager - Completed resolution of types of umbraco.interfaces.IApplication, found 0 (took 8ms)
 2023-12-21 08:31:52,540 [P17332/D2/T7] WARN  Umbraco.Core.PropertyEditors.LegacyPropertyEditorIdToAliasConverter - A legacy GUID id was generated for property editor RJP.MultiUrlPicker. This occurs when the legacy APIs are used and done to attempt to maintain backwards compatibility. Consider upgrading all code to use the new Services APIs instead to avoid any potential issues.
 2023-12-21 08:32:49,301 [P17332/D2/T9] ERROR Umbraco.Web.Scheduling.KeepAlive - Failed (at "https://localhost/umbraco").
System.Net.Http.HttpRequestException: Der opstod en fejl under afsendelse af anmodningen. ---> System.Net.WebException: Der kunne ikke oprettes forbindelse til fjernserveren ---> System.Net.Sockets.SocketException: Der kunne ikke oprettes forbindelse, fordi destinationscomputeren aktivt nægtede det 127.0.0.1:443
   ved System.Net.Sockets.Socket.InternalEndConnect(IAsyncResult asyncResult)
   ved System.Net.Sockets.Socket.EndConnect(IAsyncResult asyncResult)
   ved System.Net.ServicePoint.ConnectSocketInternal(Boolean connectFailure, Socket s4, Socket s6, Socket& socket, IPAddress& address, ConnectSocketState state, IAsyncResult asyncResult, Exception& exception)
   --- Slut på staksporing af indre undtagelser ---
   ved System.Net.HttpWebRequest.EndGetResponse(IAsyncResult asyncResult)
   ved System.Net.Http.HttpClientHandler.GetResponseCallback(IAsyncResult ar)
   --- Slut på staksporing af indre undtagelser ---
   ved System.Runtime.ExceptionServices.ExceptionDispatchInfo.Throw()
   ved System.Runtime.CompilerServices.TaskAwaiter.HandleNonSuccessAndDebuggerNotification(Task task)
   ved Umbraco.Web.Scheduling.KeepAlive.<PerformRunAsync>d__4.MoveNext()
 2023-12-21 08:37:53,416 [P17332/D2/T94] ERROR Umbraco.Web.Scheduling.KeepAlive - Failed (at "https://localhost/umbraco").
System.Net.Http.HttpRequestException: Der opstod en fejl under afsendelse af anmodningen. ---> System.Net.WebException: Der kunne ikke oprettes forbindelse til fjernserveren ---> System.Net.Sockets.SocketException: Der kunne ikke oprettes forbindelse, fordi destinationscomputeren aktivt nægtede det 127.0.0.1:443
   ved System.Net.Sockets.Socket.InternalEndConnect(IAsyncResult asyncResult)
   ved System.Net.Sockets.Socket.EndConnect(IAsyncResult asyncResult)
   ved System.Net.ServicePoint.ConnectSocketInternal(Boolean connectFailure, Socket s4, Socket s6, Socket& socket, IPAddress& address, ConnectSocketState state, IAsyncResult asyncResult, Exception& exception)
   --- Slut på staksporing af indre undtagelser ---
   ved System.Net.HttpWebRequest.EndGetResponse(IAsyncResult asyncResult)
   ved System.Net.Http.HttpClientHandler.GetResponseCallback(IAsyncResult ar)
   --- Slut på staksporing af indre undtagelser ---
   ved System.Runtime.ExceptionServices.ExceptionDispatchInfo.Throw()
   ved System.Runtime.CompilerServices.TaskAwaiter.HandleNonSuccessAndDebuggerNotification(Task task)
   ved Umbraco.Web.Scheduling.KeepAlive.<PerformRunAsync>d__4.MoveNext()
 2023-12-21 08:38:03,189 [P17332/D2/T92] WARN  Umbraco.Web.UmbracoModule - Status code is 404 yet TrySkipIisCustomErrors is false - IIS will take over.
 2023-12-21 08:42:57,541 [P17332/D2/T171] ERROR Umbraco.Web.Scheduling.KeepAlive - Failed (at "https://localhost/umbraco").
System.Net.Http.HttpRequestException: Der opstod en fejl under afsendelse af anmodningen. ---> System.Net.WebException: Der kunne ikke oprettes forbindelse til fjernserveren ---> System.Net.Sockets.SocketException: Der kunne ikke oprettes forbindelse, fordi destinationscomputeren aktivt nægtede det 127.0.0.1:443
   ved System.Net.Sockets.Socket.InternalEndConnect(IAsyncResult asyncResult)
   ved System.Net.Sockets.Socket.EndConnect(IAsyncResult asyncResult)
   ved System.Net.ServicePoint.ConnectSocketInternal(Boolean connectFailure, Socket s4, Socket s6, Socket& socket, IPAddress& address, ConnectSocketState state, IAsyncResult asyncResult, Exception& exception)
   --- Slut på staksporing af indre undtagelser ---
   ved System.Net.HttpWebRequest.EndGetResponse(IAsyncResult asyncResult)
   ved System.Net.Http.HttpClientHandler.GetResponseCallback(IAsyncResult ar)
   --- Slut på staksporing af indre undtagelser ---
   ved System.Runtime.ExceptionServices.ExceptionDispatchInfo.Throw()
   ved System.Runtime.CompilerServices.TaskAwaiter.HandleNonSuccessAndDebuggerNotification(Task task)
   ved Umbraco.Web.Scheduling.KeepAlive.<PerformRunAsync>d__4.MoveNext()
 2023-12-21 08:48:01,640 [P17332/D2/T251] ERROR Umbraco.Web.Scheduling.KeepAlive - Failed (at "https://localhost/umbraco").
System.Net.Http.HttpRequestException: Der opstod en fejl under afsendelse af anmodningen. ---> System.Net.WebException: Der kunne ikke oprettes forbindelse til fjernserveren ---> System.Net.Sockets.SocketException: Der kunne ikke oprettes forbindelse, fordi destinationscomputeren aktivt nægtede det 127.0.0.1:443
   ved System.Net.Sockets.Socket.InternalEndConnect(IAsyncResult asyncResult)
   ved System.Net.Sockets.Socket.EndConnect(IAsyncResult asyncResult)
   ved System.Net.ServicePoint.ConnectSocketInternal(Boolean connectFailure, Socket s4, Socket s6, Socket& socket, IPAddress& address, ConnectSocketState state, IAsyncResult asyncResult, Exception& exception)
   --- Slut på staksporing af indre undtagelser ---
   ved System.Net.HttpWebRequest.EndGetResponse(IAsyncResult asyncResult)
   ved System.Net.Http.HttpClientHandler.GetResponseCallback(IAsyncResult ar)
   --- Slut på staksporing af indre undtagelser ---
   ved System.Runtime.ExceptionServices.ExceptionDispatchInfo.Throw()
   ved System.Runtime.CompilerServices.TaskAwaiter.HandleNonSuccessAndDebuggerNotification(Task task)
   ved Umbraco.Web.Scheduling.KeepAlive.<PerformRunAsync>d__4.MoveNext()
 2023-12-21 08:53:05,763 [P17332/D2/T323] ERROR Umbraco.Web.Scheduling.KeepAlive - Failed (at "https://localhost/umbraco").
System.Net.Http.HttpRequestException: Der opstod en fejl under afsendelse af anmodningen. ---> System.Net.WebException: Der kunne ikke oprettes forbindelse til fjernserveren ---> System.Net.Sockets.SocketException: Der kunne ikke oprettes forbindelse, fordi destinationscomputeren aktivt nægtede det 127.0.0.1:443
   ved System.Net.Sockets.Socket.InternalEndConnect(IAsyncResult asyncResult)
   ved System.Net.Sockets.Socket.EndConnect(IAsyncResult asyncResult)
   ved System.Net.ServicePoint.ConnectSocketInternal(Boolean connectFailure, Socket s4, Socket s6, Socket& socket, IPAddress& address, ConnectSocketState state, IAsyncResult asyncResult, Exception& exception)
   --- Slut på staksporing af indre undtagelser ---
   ved System.Net.HttpWebRequest.EndGetResponse(IAsyncResult asyncResult)
   ved System.Net.Http.HttpClientHandler.GetResponseCallback(IAsyncResult ar)
   --- Slut på staksporing af indre undtagelser ---
   ved System.Runtime.ExceptionServices.ExceptionDispatchInfo.Throw()
   ved System.Runtime.CompilerServices.TaskAwaiter.HandleNonSuccessAndDebuggerNotification(Task task)
   ved Umbraco.Web.Scheduling.KeepAlive.<PerformRunAsync>d__4.MoveNext()
 2023-12-21 08:58:09,865 [P17332/D2/T403] ERROR Umbraco.Web.Scheduling.KeepAlive - Failed (at "https://localhost/umbraco").
System.Net.Http.HttpRequestException: Der opstod en fejl under afsendelse af anmodningen. ---> System.Net.WebException: Der kunne ikke oprettes forbindelse til fjernserveren ---> System.Net.Sockets.SocketException: Der kunne ikke oprettes forbindelse, fordi destinationscomputeren aktivt nægtede det 127.0.0.1:443
   ved System.Net.Sockets.Socket.InternalEndConnect(IAsyncResult asyncResult)
   ved System.Net.Sockets.Socket.EndConnect(IAsyncResult asyncResult)
   ved System.Net.ServicePoint.ConnectSocketInternal(Boolean connectFailure, Socket s4, Socket s6, Socket& socket, IPAddress& address, ConnectSocketState state, IAsyncResult asyncResult, Exception& exception)
   --- Slut på staksporing af indre undtagelser ---
   ved System.Net.HttpWebRequest.EndGetResponse(IAsyncResult asyncResult)
   ved System.Net.Http.HttpClientHandler.GetResponseCallback(IAsyncResult ar)
   --- Slut på staksporing af indre undtagelser ---
   ved System.Runtime.ExceptionServices.ExceptionDispatchInfo.Throw()
   ved System.Runtime.CompilerServices.TaskAwaiter.HandleNonSuccessAndDebuggerNotification(Task task)
   ved Umbraco.Web.Scheduling.KeepAlive.<PerformRunAsync>d__4.MoveNext()
 2023-12-21 09:03:13,975 [P17332/D2/T467] ERROR Umbraco.Web.Scheduling.KeepAlive - Failed (at "https://localhost/umbraco").
System.Net.Http.HttpRequestException: Der opstod en fejl under afsendelse af anmodningen. ---> System.Net.WebException: Der kunne ikke oprettes forbindelse til fjernserveren ---> System.Net.Sockets.SocketException: Der kunne ikke oprettes forbindelse, fordi destinationscomputeren aktivt nægtede det 127.0.0.1:443
   ved System.Net.Sockets.Socket.InternalEndConnect(IAsyncResult asyncResult)
   ved System.Net.Sockets.Socket.EndConnect(IAsyncResult asyncResult)
   ved System.Net.ServicePoint.ConnectSocketInternal(Boolean connectFailure, Socket s4, Socket s6, Socket& socket, IPAddress& address, ConnectSocketState state, IAsyncResult asyncResult, Exception& exception)
   --- Slut på staksporing af indre undtagelser ---
   ved System.Net.HttpWebRequest.EndGetResponse(IAsyncResult asyncResult)
   ved System.Net.Http.HttpClientHandler.GetResponseCallback(IAsyncResult ar)
   --- Slut på staksporing af indre undtagelser ---
   ved System.Runtime.ExceptionServices.ExceptionDispatchInfo.Throw()
   ved System.Runtime.CompilerServices.TaskAwaiter.HandleNonSuccessAndDebuggerNotification(Task task)
   ved Umbraco.Web.Scheduling.KeepAlive.<PerformRunAsync>d__4.MoveNext()
 2023-12-21 09:08:18,080 [P17332/D2/T458] ERROR Umbraco.Web.Scheduling.KeepAlive - Failed (at "https://localhost/umbraco").
System.Net.Http.HttpRequestException: Der opstod en fejl under afsendelse af anmodningen. ---> System.Net.WebException: Der kunne ikke oprettes forbindelse til fjernserveren ---> System.Net.Sockets.SocketException: Der kunne ikke oprettes forbindelse, fordi destinationscomputeren aktivt nægtede det 127.0.0.1:443
   ved System.Net.Sockets.Socket.InternalEndConnect(IAsyncResult asyncResult)
   ved System.Net.Sockets.Socket.EndConnect(IAsyncResult asyncResult)
   ved System.Net.ServicePoint.ConnectSocketInternal(Boolean connectFailure, Socket s4, Socket s6, Socket& socket, IPAddress& address, ConnectSocketState state, IAsyncResult asyncResult, Exception& exception)
   --- Slut på staksporing af indre undtagelser ---
   ved System.Net.HttpWebRequest.EndGetResponse(IAsyncResult asyncResult)
   ved System.Net.Http.HttpClientHandler.GetResponseCallback(IAsyncResult ar)
   --- Slut på staksporing af indre undtagelser ---
   ved System.Runtime.ExceptionServices.ExceptionDispatchInfo.Throw()
   ved System.Runtime.CompilerServices.TaskAwaiter.HandleNonSuccessAndDebuggerNotification(Task task)
   ved Umbraco.Web.Scheduling.KeepAlive.<PerformRunAsync>d__4.MoveNext()
 2023-12-21 09:13:22,190 [P17332/D2/T379] ERROR Umbraco.Web.Scheduling.KeepAlive - Failed (at "https://localhost/umbraco").
System.Net.Http.HttpRequestException: Der opstod en fejl under afsendelse af anmodningen. ---> System.Net.WebException: Der kunne ikke oprettes forbindelse til fjernserveren ---> System.Net.Sockets.SocketException: Der kunne ikke oprettes forbindelse, fordi destinationscomputeren aktivt nægtede det 127.0.0.1:443
   ved System.Net.Sockets.Socket.InternalEndConnect(IAsyncResult asyncResult)
   ved System.Net.Sockets.Socket.EndConnect(IAsyncResult asyncResult)
   ved System.Net.ServicePoint.ConnectSocketInternal(Boolean connectFailure, Socket s4, Socket s6, Socket& socket, IPAddress& address, ConnectSocketState state, IAsyncResult asyncResult, Exception& exception)
   --- Slut på staksporing af indre undtagelser ---
   ved System.Net.HttpWebRequest.EndGetResponse(IAsyncResult asyncResult)
   ved System.Net.Http.HttpClientHandler.GetResponseCallback(IAsyncResult ar)
   --- Slut på staksporing af indre undtagelser ---
   ved System.Runtime.ExceptionServices.ExceptionDispatchInfo.Throw()
   ved System.Runtime.CompilerServices.TaskAwaiter.HandleNonSuccessAndDebuggerNotification(Task task)
   ved Umbraco.Web.Scheduling.KeepAlive.<PerformRunAsync>d__4.MoveNext()
 2023-12-21 09:18:26,314 [P17332/D2/T279] ERROR Umbraco.Web.Scheduling.KeepAlive - Failed (at "https://localhost/umbraco").
System.Net.Http.HttpRequestException: Der opstod en fejl under afsendelse af anmodningen. ---> System.Net.WebException: Der kunne ikke oprettes forbindelse til fjernserveren ---> System.Net.Sockets.SocketException: Der kunne ikke oprettes forbindelse, fordi destinationscomputeren aktivt nægtede det 127.0.0.1:443
   ved System.Net.Sockets.Socket.InternalEndConnect(IAsyncResult asyncResult)
   ved System.Net.Sockets.Socket.EndConnect(IAsyncResult asyncResult)
   ved System.Net.ServicePoint.ConnectSocketInternal(Boolean connectFailure, Socket s4, Socket s6, Socket& socket, IPAddress& address, ConnectSocketState state, IAsyncResult asyncResult, Exception& exception)
   --- Slut på staksporing af indre undtagelser ---
   ved System.Net.HttpWebRequest.EndGetResponse(IAsyncResult asyncResult)
   ved System.Net.Http.HttpClientHandler.GetResponseCallback(IAsyncResult ar)
   --- Slut på staksporing af indre undtagelser ---
   ved System.Runtime.ExceptionServices.ExceptionDispatchInfo.Throw()
   ved System.Runtime.CompilerServices.TaskAwaiter.HandleNonSuccessAndDebuggerNotification(Task task)
   ved Umbraco.Web.Scheduling.KeepAlive.<PerformRunAsync>d__4.MoveNext()
 2023-12-21 09:23:30,427 [P17332/D2/T201] ERROR Umbraco.Web.Scheduling.KeepAlive - Failed (at "https://localhost/umbraco").
System.Net.Http.HttpRequestException: Der opstod en fejl under afsendelse af anmodningen. ---> System.Net.WebException: Der kunne ikke oprettes forbindelse til fjernserveren ---> System.Net.Sockets.SocketException: Der kunne ikke oprettes forbindelse, fordi destinationscomputeren aktivt nægtede det 127.0.0.1:443
   ved System.Net.Sockets.Socket.InternalEndConnect(IAsyncResult asyncResult)
   ved System.Net.Sockets.Socket.EndConnect(IAsyncResult asyncResult)
   ved System.Net.ServicePoint.ConnectSocketInternal(Boolean connectFailure, Socket s4, Socket s6, Socket& socket, IPAddress& address, ConnectSocketState state, IAsyncResult asyncResult, Exception& exception)
   --- Slut på staksporing af indre undtagelser ---
   ved System.Net.HttpWebRequest.EndGetResponse(IAsyncResult asyncResult)
   ved System.Net.Http.HttpClientHandler.GetResponseCallback(IAsyncResult ar)
   --- Slut på staksporing af indre undtagelser ---
   ved System.Runtime.ExceptionServices.ExceptionDispatchInfo.Throw()
   ved System.Runtime.CompilerServices.TaskAwaiter.HandleNonSuccessAndDebuggerNotification(Task task)
   ved Umbraco.Web.Scheduling.KeepAlive.<PerformRunAsync>d__4.MoveNext()
 2023-12-21 09:28:34,551 [P17332/D2/T122] ERROR Umbraco.Web.Scheduling.KeepAlive - Failed (at "https://localhost/umbraco").
System.Net.Http.HttpRequestException: Der opstod en fejl under afsendelse af anmodningen. ---> System.Net.WebException: Der kunne ikke oprettes forbindelse til fjernserveren ---> System.Net.Sockets.SocketException: Der kunne ikke oprettes forbindelse, fordi destinationscomputeren aktivt nægtede det 127.0.0.1:443
   ved System.Net.Sockets.Socket.InternalEndConnect(IAsyncResult asyncResult)
   ved System.Net.Sockets.Socket.EndConnect(IAsyncResult asyncResult)
   ved System.Net.ServicePoint.ConnectSocketInternal(Boolean connectFailure, Socket s4, Socket s6, Socket& socket, IPAddress& address, ConnectSocketState state, IAsyncResult asyncResult, Exception& exception)
   --- Slut på staksporing af indre undtagelser ---
   ved System.Net.HttpWebRequest.EndGetResponse(IAsyncResult asyncResult)
   ved System.Net.Http.HttpClientHandler.GetResponseCallback(IAsyncResult ar)
   --- Slut på staksporing af indre undtagelser ---
   ved System.Runtime.ExceptionServices.ExceptionDispatchInfo.Throw()
   ved System.Runtime.CompilerServices.TaskAwaiter.HandleNonSuccessAndDebuggerNotification(Task task)
   ved Umbraco.Web.Scheduling.KeepAlive.<PerformRunAsync>d__4.MoveNext()
